{
    "development": {
        "username": "postgres",
        "password": null,
        "database": "nodejs_crud",
        "host": "localhost",
        "port": 5432,
        "dialect": "postgres"
    }
}